Lab 06 - Ugly charts and Simpson’s paradox
…
## Rows: 5 Columns: 12
## ── Column specification ────────────────────────────────────────────────────────
## Delimiter: ","
## chr  (1): faculty_type
## dbl (11): 1975, 1989, 1993, 1995, 1999, 2001, 2003, 2005, 2007, 2009, 2011
## 
## ℹ Use `spec()` to retrieve the full column specification for this data.
## ℹ Specify the column types or set `show_col_types = FALSE` to quiet this message.

staff_long <- staff %>%
  pivot_longer(cols = -faculty_type, names_to = "year") %>%
  mutate(value = as.numeric(value))
staff_long

## # A tibble: 55 × 3
##    faculty_type              year  value
##    <chr>                     <chr> <dbl>
##  1 Full-Time Tenured Faculty 1975   29  
##  2 Full-Time Tenured Faculty 1989   27.6
##  3 Full-Time Tenured Faculty 1993   25  
##  4 Full-Time Tenured Faculty 1995   24.8
##  5 Full-Time Tenured Faculty 1999   21.8
##  6 Full-Time Tenured Faculty 2001   20.3
##  7 Full-Time Tenured Faculty 2003   19.3
##  8 Full-Time Tenured Faculty 2005   17.8
##  9 Full-Time Tenured Faculty 2007   17.2
## 10 Full-Time Tenured Faculty 2009   16.8
## # … with 45 more rows
…
fisheries_new <- fisheries %>%
  pivot_longer(cols = -country, names_to = "Harvest") %>%
  filter(Harvest %in% c("capture", "aquaculture")) %>%
  mutate(value = as.numeric(value))
fisheries_new

## # A tibble: 432 × 3
##    country        Harvest     value
##    <chr>          <chr>       <dbl>
##  1 Afghanistan    capture      1000
##  2 Afghanistan    aquaculture  1200
##  3 Albania        capture      7886
##  4 Albania        aquaculture   950
##  5 Algeria        capture     95000
##  6 Algeria        aquaculture  1361
##  7 American Samoa capture      3047
##  8 American Samoa aquaculture    20
##  9 Andorra        capture         0
## 10 Andorra        aquaculture     0
## # … with 422 more rows
…
